{
  "version": 2,
	"builds": [
		{ "src": "dist/css/*.css", "use": "@now/static" },
		{ "src": "dist/js/*.js", "use": "@now/static" },
		{ "src": "images/*.png", "use": "@now/static" },
		{ "src": "images/covers/*.jpg", "use": "@now/static" },
		{ "src": "src/api.json", "use": "@now/static" },
		{ "src": "index.html", "use": "@now/static" }
	]
}